{
  "kind": "collectionType",
  "collectionName": "lunch_groups",
  "info": {
    "name": "lunch_group",
    "description": ""
  },
  "options": {
    "increments": true,
    "timestamps": true,
    "draftAndPublish": true
  },
  "pluginOptions": {},
  "attributes": {
    "Schedule": {
      "type": "time",
      "required": false
    },
    "date": {
      "type": "date",
      "required": true
    },
    "users": {
      "plugin": "users-permissions",
      "collection": "user",
      "via": "lunch_groups",
      "dominant": true
    },
    "organization": {
      "via": "lunch_groups",
      "model": "organization"
    },
    "fake_schedule": {
      "type": "string"
    },
    "restaurant": {
      "model": "restaurant"
    }
  }
}
